…
``` r
flights=flights
time_hm= function(year, month, day, time) {
  make_datetime(year, month, day, time %/% 100, time %% 100)
}

new=flights %>% 
  mutate(new_dep_time=time_hm(year, month, day, dep_time), 
         new_arr_time=time_hm(year, month, day, arr_time),
         new_sch_dep=time_hm(year, month, day, sched_dep_time), 
         new_sch_arr=time_hm(year, month, day, sched_arr_time))
new[,20:23]
```

    ## # A tibble: 336,776 x 4
    ##    new_dep_time        new_arr_time        new_sch_dep        
    ##    <dttm>              <dttm>              <dttm>             
    ##  1 2013-01-01 05:17:00 2013-01-01 08:30:00 2013-01-01 05:15:00
    ##  2 2013-01-01 05:33:00 2013-01-01 08:50:00 2013-01-01 05:29:00
    ##  3 2013-01-01 05:42:00 2013-01-01 09:23:00 2013-01-01 05:40:00
    ##  4 2013-01-01 05:44:00 2013-01-01 10:04:00 2013-01-01 05:45:00
    ##  5 2013-01-01 05:54:00 2013-01-01 08:12:00 2013-01-01 06:00:00
    ##  6 2013-01-01 05:54:00 2013-01-01 07:40:00 2013-01-01 05:58:00
    ##  7 2013-01-01 05:55:00 2013-01-01 09:13:00 2013-01-01 06:00:00
    ##  8 2013-01-01 05:57:00 2013-01-01 07:09:00 2013-01-01 06:00:00
    ##  9 2013-01-01 05:57:00 2013-01-01 08:38:00 2013-01-01 06:00:00
    ## 10 2013-01-01 05:58:00 2013-01-01 07:53:00 2013-01-01 06:00:00
    ## # ... with 336,766 more rows, and 1 more variable: new_sch_arr <dttm>

#### Pregunta 2

``` r
total_delay=new %>% 
  select(flight,dep_delay, arr_delay) %>% 
  mutate(delay=minutes(dep_delay+arr_delay))
total_delay
```

    ## # A tibble: 336,776 x 4
    ##    flight dep_delay arr_delay delay   
    ##     <int>     <dbl>     <dbl> <Period>
    ##  1   1545         2        11 13M 0S  
    ##  2   1714         4        20 24M 0S  
    ##  3   1141         2        33 35M 0S  
    ##  4    725        -1       -18 -19M 0S 
    ##  5    461        -6       -25 -31M 0S 
    ##  6   1696        -4        12 8M 0S   
    ##  7    507        -5        19 14M 0S  
    ##  8   5708        -3       -14 -17M 0S 
    ##  9     79        -3        -8 -11M 0S 
    ## 10    301        -2         8 6M 0S   
    ## # ... with 336,766 more rows
